<?xml version="1.0" encoding="iso-8859-1"?>
<!-- Generator: Adobe Illustrator 19.2.0, SVG Export Plug-In . SVG Version: 6.00 Build 0)  -->
<svg version="1.1" id="Calque_1" xmlns="http://www.w3.org/2000/svg" xmlns:xlink="http://www.w3.org/1999/xlink" x="0px" y="0px"
	 viewBox="0 0 40 40" style="enable-background:new 0 0 40 40;" xml:space="preserve">
<line style="opacity:0.5;fill:#1C9FDA;" x1="20" y1="35.212" x2="20" y2="5.003"/>
<circle style="opacity:0.2;fill:#D6E0E9;" cx="19.999" cy="20" r="20"/>
<g>
	<g>
		<path style="fill:#B1C736;" d="M20.002,35c-8.01,0-14.527-6.329-14.527-14.115c0-5.595,3.408-10.668,8.678-12.925
			c0.812-0.35,1.75,0.03,2.1,0.843c0.342,0.815-0.029,1.753-0.846,2.093c-4.092,1.753-6.738,5.677-6.738,9.989
			c0,6.025,5.086,10.922,11.334,10.922c6.246,0,11.33-4.896,11.33-10.922c0-4.214-2.443-7.973-6.375-9.822
			c-0.793-0.377-1.141-1.324-0.762-2.126c0.371-0.799,1.328-1.144,2.123-0.767c4.982,2.342,8.205,7.341,8.205,12.715
			C34.523,28.671,28.006,35,20.002,35z"/>
	</g>
	<g>
		<path style="fill:#B1C736;" d="M18.221,11.686v2.798c0,0.298,0.172,0.556,0.5,0.773c0.334,0.223,0.756,0.327,1.26,0.327
			c0.492,0,0.91-0.115,1.266-0.339c0.355-0.232,0.531-0.488,0.531-0.762v-2.798V8.868V6.052c0-0.316-0.174-0.574-0.514-0.762
			C20.918,5.094,20.49,5,19.98,5c-0.529,0-0.953,0.094-1.275,0.29c-0.324,0.188-0.484,0.445-0.484,0.762v2.816V11.686z"/>
	</g>
</g>
</svg>
