<?xml version="1.0" encoding="iso-8859-1"?>
<!-- Generator: Adobe Illustrator 19.1.0, SVG Export Plug-In . SVG Version: 6.00 Build 0)  -->
<svg version="1.1" id="Calque_1" xmlns="http://www.w3.org/2000/svg" xmlns:xlink="http://www.w3.org/1999/xlink" x="0px" y="0px"
	 viewBox="0 0 20 19.537" style="enable-background:new 0 0 20 19.537;" xml:space="preserve">
<g>
	<g>
		<g>
			<path style="fill:#9E6BAB;" d="M20,19.537H0v-0.476c0-3.076,1.641-5.719,6.265-5.719h0.126L6.5,13.404
				c2.074,1.18,4.744,1.162,6.803-0.045l0.111-0.064h0.129c2.497,0,6.457,0.871,6.457,5.766V19.537z M0.967,18.584h18.066
				c-0.258-4.182-3.896-4.279-5.367-4.336c-2.293,1.289-5.217,1.309-7.523,0.047C2.541,14.354,1.119,15.996,0.967,18.584z"/>
		</g>
		<g>
			<path style="fill:#9E6BAB;" d="M9.861,13.061c-3.602,0-6.531-2.93-6.531-6.529C3.33,2.93,6.26,0,9.861,0
				c3.602,0,6.532,2.93,6.532,6.531C16.394,10.131,13.463,13.061,9.861,13.061z M9.861,0.953c-3.076,0-5.579,2.502-5.579,5.578
				c0,3.076,2.503,5.576,5.579,5.576c3.076,0,5.58-2.5,5.58-5.576C15.441,3.455,12.938,0.953,9.861,0.953z"/>
		</g>
	</g>
</g>
</svg>
