<?xml version="1.0" encoding="iso-8859-1"?>
<!-- Generator: Adobe Illustrator 19.1.0, SVG Export Plug-In . SVG Version: 6.00 Build 0)  -->
<svg version="1.1" id="Calque_1" xmlns="http://www.w3.org/2000/svg" xmlns:xlink="http://www.w3.org/1999/xlink" x="0px" y="0px"
	 viewBox="0 0 20 20" style="enable-background:new 0 0 20 20;" xml:space="preserve">
<g>
	<g>
		<path style="fill:#169FDB;" d="M8.699,14.433v-3.177H5.455c-0.352,0-0.648-0.121-0.891-0.365c-0.244-0.243-0.367-0.537-0.367-0.88
			c0-0.344,0.123-0.642,0.367-0.893c0.242-0.251,0.539-0.376,0.891-0.376h3.244V5.565c0-0.366,0.125-0.675,0.377-0.926
			C9.328,4.388,9.63,4.262,9.989,4.262c0.357,0,0.665,0.126,0.925,0.378c0.258,0.251,0.389,0.56,0.389,0.926v3.177h3.244
			c0.35,0,0.646,0.125,0.891,0.376c0.244,0.251,0.365,0.549,0.365,0.893c0,0.343-0.121,0.637-0.365,0.88
			c-0.244,0.244-0.541,0.365-0.891,0.365h-3.244v3.177c0,0.366-0.131,0.676-0.389,0.927c-0.26,0.251-0.568,0.377-0.925,0.377
			c-0.359,0-0.662-0.126-0.914-0.377C8.824,15.108,8.699,14.799,8.699,14.433z"/>
	</g>
	<g>
		<g>
			<path style="fill:#169FDB;" d="M9.999,20C4.486,20,0,15.514,0,10C0,4.486,4.486,0,9.999,0C15.514,0,20,4.486,20,10
				C20,15.514,15.514,20,9.999,20z M9.999,0.952c-4.988,0-9.046,4.059-9.046,9.048c0,4.989,4.059,9.048,9.046,9.048
				c4.99,0,9.05-4.059,9.05-9.048C19.049,5.011,14.989,0.952,9.999,0.952z"/>
		</g>
	</g>
</g>
</svg>
