<?xml version="1.0" encoding="iso-8859-1"?>
<!-- Generator: Adobe Illustrator 19.1.0, SVG Export Plug-In . SVG Version: 6.00 Build 0)  -->
<svg version="1.1" id="Calque_1" xmlns="http://www.w3.org/2000/svg" xmlns:xlink="http://www.w3.org/1999/xlink" x="0px" y="0px"
	 viewBox="0 0 62.638 29.937" style="enable-background:new 0 0 62.638 29.937;" xml:space="preserve">
<g>
	<g>
		<path style="fill:#E76162;" d="M47.752,29.426H14.887c-7.926,0-14.375-6.486-14.375-14.458c0-7.971,6.449-14.456,14.375-14.456
			h32.865c7.925,0,14.374,6.485,14.374,14.456C62.126,22.939,55.677,29.426,47.752,29.426z"/>
		<path style="fill:#BDC7D2;" d="M47.752,29.937H14.887C6.677,29.937,0,23.222,0,14.968C0,6.716,6.677,0,14.887,0h32.865
			c8.209,0,14.886,6.716,14.886,14.968C62.638,23.222,55.961,29.937,47.752,29.937z M14.887,1.022
			c-7.644,0-13.863,6.256-13.863,13.945c0,7.689,6.219,13.945,13.863,13.945h32.865c7.645,0,13.862-6.256,13.862-13.945
			c0-7.689-6.218-13.945-13.862-13.945H14.887z"/>
	</g>
</g>
<g>
	<path style="fill:#FFFFFF;" d="M15.881,1.457c-7.454,0-13.498,6.039-13.498,13.491c0,7.452,6.044,13.493,13.498,13.493
		s13.5-6.041,13.5-13.493C29.381,7.496,23.335,1.457,15.881,1.457z"/>
</g>
<g>
	<path style="fill:#FFFFFF;" d="M45.901,19.714c0,0.254-0.089,0.463-0.271,0.641c-0.181,0.174-0.395,0.258-0.646,0.258
		c-0.252,0-0.472-0.107-0.656-0.324c-0.043-0.045-0.07-0.076-0.08-0.098l-5.238-7.266v6.789c0,0.24-0.087,0.449-0.261,0.633
		c-0.176,0.178-0.385,0.266-0.63,0.266c-0.245,0-0.456-0.084-0.63-0.258c-0.174-0.178-0.264-0.387-0.264-0.641V10.19
		c-0.021-0.316,0.086-0.557,0.321-0.721c0.233-0.164,0.47-0.227,0.71-0.186c0.24,0.035,0.432,0.152,0.572,0.35l5.288,7.314v-6.74
		c0-0.24,0.086-0.447,0.261-0.623C44.554,9.411,44.761,9.323,45,9.323c0.241,0,0.45,0.088,0.631,0.262
		c0.182,0.176,0.271,0.383,0.271,0.623V19.714z"/>
	<path style="fill:#FFFFFF;" d="M54.729,13.667c-0.758-0.822-1.675-1.236-2.757-1.236c-1.08,0-2.005,0.408-2.774,1.221
		c-0.767,0.812-1.153,1.781-1.153,2.906c0,1.121,0.384,2.088,1.146,2.895c0.762,0.809,1.694,1.213,2.798,1.213
		c1.103,0,2.013-0.416,2.732-1.244c0.766-0.744,1.146-1.682,1.146-2.815C55.868,15.472,55.49,14.489,54.729,13.667z M53.494,18.276
		c-0.426,0.4-0.937,0.604-1.537,0.604c-0.6,0-1.113-0.203-1.539-0.604c-0.392-0.482-0.59-1.061-0.59-1.738
		c0-0.676,0.198-1.244,0.59-1.701c0.468-0.414,0.982-0.621,1.539-0.621c0.557,0,1.068,0.207,1.537,0.621
		c0.426,0.457,0.639,1.025,0.639,1.701C54.133,17.216,53.92,17.794,53.494,18.276z"/>
</g>
</svg>
