<?xml version="1.0" encoding="iso-8859-1"?>
<!-- Generator: Adobe Illustrator 19.1.0, SVG Export Plug-In . SVG Version: 6.00 Build 0)  -->
<svg version="1.1" id="Calque_1" xmlns="http://www.w3.org/2000/svg" xmlns:xlink="http://www.w3.org/1999/xlink" x="0px" y="0px"
	 viewBox="0 0 62.638 29.938" style="enable-background:new 0 0 62.638 29.938;" xml:space="preserve">
<g>
	<g>
		<path style="fill:#B2C72C;" d="M47.752,29.426H14.888c-7.927,0-14.375-6.486-14.375-14.457c0-7.972,6.448-14.457,14.375-14.457
			h32.864c7.925,0,14.374,6.485,14.374,14.457C62.126,22.94,55.677,29.426,47.752,29.426z"/>
		<path style="fill:#BDC7D2;" d="M47.752,29.938H14.888C6.678,29.938,0,23.223,0,14.969S6.678,0,14.888,0h32.864
			c8.209,0,14.886,6.715,14.886,14.969S55.961,29.938,47.752,29.938z M14.888,1.023c-7.646,0-13.864,6.258-13.864,13.945
			c0,7.689,6.219,13.945,13.864,13.945h32.864c7.646,0,13.863-6.256,13.863-13.945c0-7.687-6.218-13.945-13.863-13.945H14.888z"/>
	</g>
</g>
<g>
	<path style="fill:#FFFFFF;" d="M46.545,1.476c-7.457,0-13.498,6.041-13.498,13.491c0,7.453,6.041,13.495,13.498,13.495
		c7.453,0,13.5-6.042,13.5-13.495C60.045,7.517,53.998,1.476,46.545,1.476z"/>
</g>
<g>
	<path style="fill:#FFFFFF;" d="M9.651,19.095c0,0.251-0.086,0.465-0.262,0.638c-0.174,0.176-0.383,0.264-0.629,0.264
		c-0.246,0-0.458-0.088-0.639-0.264c-0.18-0.173-0.27-0.387-0.27-0.638v-4.418l-3.322-4.601C4.377,9.881,4.318,9.663,4.35,9.424
		c0.033-0.24,0.153-0.438,0.358-0.591c0.209-0.151,0.432-0.208,0.674-0.17C5.621,8.699,5.812,8.822,5.953,9.03l2.8,3.829L11.55,9.03
		c0.152-0.208,0.352-0.331,0.598-0.367c0.245-0.038,0.468,0.017,0.664,0.161c0.196,0.149,0.312,0.344,0.351,0.591
		c0.04,0.244-0.016,0.466-0.154,0.661l-3.356,4.601V19.095z"/>
	<path style="fill:#FFFFFF;" d="M26.388,19.34c-0.629,0.436-1.34,0.656-2.127,0.656c-1.012-0.012-1.985-0.388-2.912-1.13
		c-0.174-0.142-0.275-0.337-0.303-0.581c-0.027-0.245,0.035-0.456,0.189-0.63c0.141-0.198,0.338-0.306,0.588-0.329
		c0.252-0.02,0.464,0.046,0.64,0.198c0.589,0.491,1.188,0.729,1.798,0.72c0.415,0,0.787-0.105,1.113-0.31
		c0.198-0.166,0.296-0.304,0.296-0.419c0-0.115-0.017-0.195-0.049-0.237c-0.023-0.055-0.093-0.12-0.213-0.196
		c-0.264-0.186-0.699-0.337-1.31-0.457h-0.017c-0.577-0.111-1.082-0.268-1.513-0.478c-0.432-0.205-0.778-0.506-1.041-0.897
		c-0.185-0.306-0.276-0.65-0.276-1.033c0-0.707,0.321-1.309,0.964-1.799c0.591-0.404,1.263-0.604,2.021-0.604
		c0.76,0,1.575,0.299,2.448,0.899c0.197,0.131,0.32,0.312,0.367,0.547c0.05,0.236,0.014,0.456-0.104,0.664
		c-0.132,0.197-0.314,0.319-0.551,0.369c-0.233,0.047-0.454,0.002-0.661-0.141c-0.611-0.403-1.115-0.604-1.516-0.604
		c-0.396,0-0.721,0.096-0.971,0.293c-0.176,0.12-0.265,0.228-0.265,0.318c0,0.094,0.016,0.16,0.042,0.206
		c0.028,0.044,0.085,0.093,0.172,0.147c0.239,0.163,0.638,0.295,1.195,0.391l0.017,0.018h0.016c0.578,0.109,1.107,0.273,1.587,0.49
		c0.48,0.219,0.834,0.521,1.064,0.901c0.228,0.381,0.342,0.759,0.342,1.129C27.419,18.205,27.077,18.839,26.388,19.34z"/>
	<path style="fill:#FFFFFF;" d="M19.033,12.885c-0.747-0.716-1.666-1.071-2.759-1.071c-1.09,0-2.019,0.399-2.788,1.202
		c-0.771,0.802-1.161,1.765-1.171,2.888c0.01,1.124,0.4,2.085,1.171,2.881c0.769,0.796,1.722,1.198,2.863,1.203
		c1.141,0.006,2.103-0.351,2.888-1.072c0.307-0.37,0.307-0.726,0-1.065c-0.108-0.142-0.3-0.212-0.573-0.212
		c-0.271,0-0.49,0.088-0.653,0.261c-0.492,0.351-1.072,0.485-1.744,0.402c-0.672-0.082-1.18-0.324-1.528-0.729
		c-0.275-0.252-0.459-0.61-0.557-1.08h5.204c0.262,0,0.472-0.072,0.629-0.222c0.158-0.146,0.238-0.338,0.238-0.579V15.61
		C20.187,14.506,19.779,13.6,19.033,12.885z M14.099,15.102c0.077-0.402,0.306-0.784,0.686-1.145
		c0.384-0.36,0.891-0.557,1.523-0.589c0.653,0.055,1.198,0.264,1.629,0.622c0.431,0.36,0.695,0.731,0.794,1.112H14.099z"/>
</g>
</svg>
