<?xml version="1.0" encoding="iso-8859-1"?>
<!-- Generator: Adobe Illustrator 19.1.0, SVG Export Plug-In . SVG Version: 6.00 Build 0)  -->
<svg version="1.1" id="Calque_1" xmlns="http://www.w3.org/2000/svg" xmlns:xlink="http://www.w3.org/1999/xlink" x="0px" y="0px"
	 viewBox="0 0 20 20" style="enable-background:new 0 0 20 20;" xml:space="preserve">
<g>
	<g>
		<g>
			<path style="fill:#617B8F;" d="M18.253,12.777c0,0.342-0.129,0.645-0.373,0.874c-0.469,0.438-1.203,0.452-1.674,0.033
				l-5.885-5.843l-5.836,5.818c-0.539,0.43-1.213,0.438-1.709,0.049c-0.551-0.534-0.522-1.32-0.062-1.791L9.46,5.254
				c0.234-0.229,0.525-0.349,0.84-0.349c0.35,0,0.664,0.13,0.906,0.375l6.674,6.631C18.12,12.126,18.253,12.43,18.253,12.777z
				 M3.118,12.786c0,0.148,0.045,0.256,0.152,0.359c0.189,0.146,0.484,0.139,0.717-0.046l6.332-6.317l6.4,6.355
				c0.166,0.146,0.463,0.139,0.646-0.033c0.182-0.173,0.188-0.478-0.002-0.648L10.674,5.81c-0.102-0.104-0.229-0.154-0.375-0.154
				c-0.121,0-0.221,0.042-0.315,0.134l-6.74,6.656C3.161,12.532,3.118,12.643,3.118,12.786z"/>
		</g>
	</g>
</g>
</svg>
