<?xml version="1.0" encoding="iso-8859-1"?>
<!-- Generator: Adobe Illustrator 19.2.0, SVG Export Plug-In . SVG Version: 6.00 Build 0)  -->
<svg version="1.1" id="Calque_1" xmlns="http://www.w3.org/2000/svg" xmlns:xlink="http://www.w3.org/1999/xlink" x="0px" y="0px"
	 viewBox="0 0 16.307 20" style="enable-background:new 0 0 16.307 20;" xml:space="preserve">
<g>
	<path style="fill:#B2C72C;" d="M6.089,16.601c-0.071,0.133-0.17,0.199-0.298,0.199c-0.132,0-0.238-0.051-0.318-0.154l-1.117-1.538
		l-1.125,1.538c-0.079,0.103-0.185,0.154-0.316,0.154c-0.134,0-0.229-0.065-0.298-0.199c-0.069-0.133-0.062-0.262,0.022-0.378
		l1.264-1.735L2.64,12.774c-0.057-0.086-0.08-0.173-0.064-0.271c0.015-0.099,0.064-0.177,0.149-0.239
		c0.082-0.058,0.17-0.079,0.273-0.064c0.098,0.015,0.176,0.064,0.233,0.148l1.125,1.531l1.117-1.531
		c0.062-0.083,0.144-0.133,0.242-0.148c0.097-0.014,0.187,0.007,0.266,0.064c0.086,0.062,0.132,0.14,0.147,0.239
		c0.017,0.098-0.005,0.186-0.061,0.271l-1.265,1.713l1.265,1.735C6.149,16.339,6.157,16.467,6.089,16.601z M10.268,16.691
		c-0.075,0.073-0.158,0.108-0.259,0.108H7.837c-0.103,0-0.186-0.035-0.261-0.106c-0.072-0.072-0.106-0.155-0.106-0.261v-3.925
		c0-0.102,0.034-0.187,0.106-0.261c0.075-0.069,0.158-0.101,0.261-0.101c0.102,0,0.188,0.032,0.263,0.101
		c0.072,0.074,0.109,0.159,0.109,0.261v3.553h1.8c0.101,0,0.184,0.039,0.259,0.112c0.073,0.074,0.109,0.16,0.109,0.257
		C10.377,16.529,10.341,16.619,10.268,16.691z M14.015,16.397c-0.364,0.265-0.783,0.396-1.258,0.396
		c-0.578-0.003-1.148-0.225-1.703-0.667c-0.069-0.054-0.112-0.135-0.122-0.231c-0.014-0.097,0.01-0.18,0.069-0.252
		c0.058-0.071,0.135-0.115,0.233-0.123c0.097-0.013,0.18,0.012,0.252,0.074c0.427,0.345,0.849,0.516,1.269,0.512
		c0.333,0,0.605-0.078,0.81-0.229c0.207-0.15,0.311-0.316,0.311-0.491c0-0.341-0.389-0.582-1.17-0.727h-0.013
		c-0.35-0.068-0.648-0.163-0.9-0.282c-0.252-0.121-0.437-0.277-0.556-0.462c-0.114-0.19-0.177-0.38-0.177-0.58
		c0-0.385,0.171-0.7,0.509-0.953c0.34-0.249,0.729-0.374,1.173-0.374c0.197,0,0.398,0.035,0.603,0.103
		c0.202,0.067,0.352,0.127,0.455,0.184c0.1,0.059,0.23,0.141,0.394,0.246c0.076,0.055,0.123,0.127,0.143,0.22
		c0.024,0.094,0.006,0.182-0.044,0.258c-0.051,0.076-0.123,0.125-0.218,0.145c-0.09,0.019-0.179,0.004-0.259-0.048
		c-0.206-0.144-0.395-0.25-0.556-0.321c-0.161-0.072-0.332-0.108-0.516-0.108c-0.293,0-0.529,0.07-0.716,0.207
		c-0.187,0.139-0.279,0.286-0.279,0.442c0,0.074,0.017,0.139,0.049,0.192c0.126,0.202,0.461,0.356,1.007,0.46h0.013
		c0.373,0.07,0.682,0.168,0.917,0.277c0.549,0.271,0.825,0.644,0.825,1.122C14.561,15.795,14.381,16.135,14.015,16.397z"/>
	<path style="fill:#B2C72C;" d="M15.521,3.045l-2.247-2.254C12.835,0.346,11.998,0,11.373,0H1.325C0.593,0,0,0.592,0,1.324v17.349
		C0,19.406,0.593,20,1.325,20h13.654c0.732,0,1.328-0.594,1.328-1.328V4.946C16.307,4.319,15.963,3.487,15.521,3.045z M15.009,3.557
		c0.198,0.195,0.368,0.531,0.475,0.864h-3.008c-0.332,0-0.605-0.271-0.605-0.603V0.815c0.339,0.104,0.69,0.281,0.888,0.485
		L15.009,3.557z M14.979,19.279H1.325c-0.336,0-0.604-0.272-0.604-0.606V1.324c0-0.333,0.268-0.602,0.604-0.602h9.826v3.096
		c0,0.731,0.594,1.326,1.326,1.326h3.107v13.529C15.583,19.001,15.307,19.279,14.979,19.279z"/>
</g>
</svg>
