<?xml version="1.0" encoding="iso-8859-1"?>
<!-- Generator: Adobe Illustrator 19.1.0, SVG Export Plug-In . SVG Version: 6.00 Build 0)  -->
<svg version="1.1" id="Calque_1" xmlns="http://www.w3.org/2000/svg" xmlns:xlink="http://www.w3.org/1999/xlink" x="0px" y="0px"
	 viewBox="0 0 17 17" style="enable-background:new 0 0 17 17;" xml:space="preserve">
<g>
	<g>
		<path style="fill:#D6E0E9;" d="M8.5,17C3.812,17,0,13.186,0,8.501C0,3.813,3.812,0,8.5,0C13.186,0,17,3.813,17,8.501
			C17,13.186,13.186,17,8.5,17z M8.5,1C4.363,1,1,4.364,1,8.501C1,12.636,4.363,16,8.5,16c4.135,0,7.5-3.364,7.5-7.499
			C16,4.364,12.635,1,8.5,1z"/>
	</g>
</g>
</svg>
