<?xml version="1.0" encoding="iso-8859-1"?>
<!-- Generator: Adobe Illustrator 19.1.0, SVG Export Plug-In . SVG Version: 6.00 Build 0)  -->
<svg version="1.1" id="Calque_1" xmlns="http://www.w3.org/2000/svg" xmlns:xlink="http://www.w3.org/1999/xlink" x="0px" y="0px"
	 viewBox="0 0 28 28" style="enable-background:new 0 0 28 28;" xml:space="preserve">
<g>
	<circle style="fill:#EA620E;" cx="14" cy="14" r="8"/>
	<g>
		<path style="fill:#EA620E;" d="M14,28C6.28,28,0,21.72,0,14C0,6.28,6.28,0,14,0s14,6.28,14,14C28,21.72,21.72,28,14,28z M14,2
			C7.383,2,2,7.383,2,14c0,6.617,5.383,12,12,12c6.617,0,12-5.383,12-12C26,7.383,20.617,2,14,2z"/>
	</g>
</g>
</svg>
