<!-- Generator: Adobe Illustrator 19.2.0, SVG Export Plug-In  -->
<svg version="1.1"
	 xmlns="http://www.w3.org/2000/svg" xmlns:xlink="http://www.w3.org/1999/xlink" xmlns:a="http://ns.adobe.com/AdobeSVGViewerExtensions/3.0/"
	 x="0px" y="0px" width="30px" height="28px" viewBox="0 0 30 28" style="enable-background:new 0 0 30 28;" xml:space="preserve">
<defs>
</defs>
<g>
	<g>
		<path style="fill:#E76162;" d="M15.003,28C6.731,28,0,21.475,0,13.455C0,7.686,3.522,2.457,8.962,0.133
			c0.835-0.359,1.805,0.035,2.165,0.871c0.358,0.836-0.031,1.803-0.869,2.158c-4.227,1.805-6.962,5.85-6.962,10.293
			c0,6.207,5.251,11.256,11.707,11.256c6.451,0,11.7-5.049,11.7-11.256c0-4.344-2.521-8.217-6.58-10.125
			c-0.823-0.387-1.18-1.367-0.788-2.189c0.385-0.822,1.367-1.176,2.19-0.791C26.675,2.772,30,7.906,30,13.455
			C30,21.475,23.275,28,15.003,28z"/>
	</g>
	<g>
		<path style="fill:#E76162;" d="M16.443,14.969h2.883c0.304,0,0.568-0.168,0.798-0.506c0.23-0.348,0.342-0.783,0.342-1.305
			c0-0.498-0.122-0.932-0.355-1.297c-0.236-0.367-0.5-0.547-0.785-0.547h-2.883H13.53h-2.902c-0.329,0.002-0.59,0.174-0.792,0.527
			c-0.195,0.356-0.299,0.795-0.299,1.316c0,0.549,0.104,0.986,0.299,1.314c0.202,0.332,0.463,0.496,0.792,0.496h2.902H16.443z"/>
	</g>
</g>
</svg>
