<!-- Generator: Adobe Illustrator 19.2.0, SVG Export Plug-In  -->
<svg version="1.1"
	 xmlns="http://www.w3.org/2000/svg" xmlns:xlink="http://www.w3.org/1999/xlink" xmlns:a="http://ns.adobe.com/AdobeSVGViewerExtensions/3.0/"
	 x="0px" y="0px" width="29.049px" height="30px" viewBox="0 0 29.049 30" style="enable-background:new 0 0 29.049 30;"
	 xml:space="preserve">
<defs>
</defs>
<g>
	<g>
		<path style="fill:#B2C72C;" d="M14.527,30C6.518,30,0,23.671,0,15.885C0,10.29,3.408,5.217,8.678,2.96
			c0.813-0.35,1.75,0.03,2.1,0.843c0.342,0.815-0.029,1.753-0.846,2.093c-4.092,1.753-6.738,5.677-6.738,9.989
			c0,6.025,5.086,10.922,11.334,10.922c6.246,0,11.33-4.896,11.33-10.922c0-4.214-2.443-7.973-6.375-9.822
			c-0.793-0.377-1.141-1.324-0.762-2.126c0.371-0.799,1.328-1.144,2.123-0.767c4.982,2.342,8.205,7.341,8.205,12.715
			C29.049,23.671,22.531,30,14.527,30z"/>
	</g>
	<g>
		<path style="fill:#B2C72C;" d="M12.746,6.686v2.798c0,0.298,0.172,0.556,0.5,0.773c0.334,0.223,0.756,0.327,1.26,0.327
			c0.492,0,0.91-0.115,1.266-0.339c0.356-0.232,0.531-0.488,0.531-0.762V6.686V3.868V1.052c0-0.316-0.174-0.574-0.514-0.762
			C15.443,0.094,15.016,0,14.506,0c-0.529,0-0.953,0.094-1.275,0.29c-0.324,0.188-0.484,0.445-0.484,0.762v2.816V6.686z"/>
	</g>
</g>
</svg>
